…
# write the results to disk
output_directory <- file.path(tempdir(), "sceptre_outputs")
write_outputs_to_directory(sceptre_object, output_directory)

# open the output directory to inspect the results
browseURL(output_directory)
```

That’s it. The output directory now contains a variety of results and
plots from the analysis, including the set of significant gRNA-gene
pairs:

    ## # A tibble: 13 × 4
    ##   grna_target      response_id        p_value log_2_fold_change
    ##   <chr>            <chr>                <dbl>             <dbl>
    ## 1 candidate_enh_17 ENSG00000220891 0.00000215            -1.50 
    ## 2 candidate_enh_15 ENSG00000211641 0.00000604            -0.743
    ## 3 candidate_enh_18 ENSG00000220891 0.0000262             -1.29 
    ## 4 candidate_enh_5  ENSG00000211655 0.0000310             -1.11 
    ## 5 candidate_enh_19 ENSG00000253451 0.0000865             -0.874
    ## # ℹ 8 more rows
…
